…
### Summary of Bayesian Analysis

One can summarize the Bayesian analysis using the summary function.

``` r
print(summary(TPSC_model), n = 7)
#> # A tibble: 113 × 10
#>   variable        mean  median     sd    mad       q5     q95  rhat ess_bulk
#>   <chr>          <dbl>   <dbl>  <dbl>  <dbl>    <dbl>   <dbl> <dbl>    <dbl>
#> 1 w             0.270   0.276  0.119  0.134   0.0790   0.466   1.01     347.
#> 2 delta         1.89    1.80   0.645  0.562   1.08     3.01    1.00    1024.
#> 3 sigma         1.17    1.16   0.259  0.254   0.769    1.62    1.00     464.
#> 4 (Intercept)   1.11    1.13   2.65   2.69   -3.53     5.42    1.00     706.
#> 5 college      -0.199  -0.201  0.0804 0.0824 -0.328   -0.0622  1.00     770.
#> 6 poverty       0.240   0.248  0.135  0.131   0.00362  0.446   1.01     503.
#> 7 metropolitan  0.0640  0.0623 0.0158 0.0156  0.0397   0.0916  1.01     489.
#> # ℹ 106 more rows
#> # ℹ 1 more variable: ess_tail <dbl>
```
…
<img src="man/figures/README-unnamed-chunk-6-1.png" width="100%" />

The summary of posterior predictive distribution can be assessed using
the following command. Here `ystar[1]` represents the posterior
prediction of the first observation in the dataset, and so on.

``` r
summary(posterior::subset_draws(TPSC_model, variable = "ystar"))
#> # A tibble: 51 × 10
#>    variable   mean median    sd   mad     q5   q95  rhat ess_bulk ess_tail
#>    <chr>     <dbl>  <dbl> <dbl> <dbl>  <dbl> <dbl> <dbl>    <dbl>    <dbl>
#>  1 ystar[1]   7.86   6.12 20.0   2.04  3.05  13.8  0.999    1974.    1853.
#>  2 ystar[2]   2.31   1.28  6.66  2.02 -1.69   8.32 1.00     1860.    1872.
#>  3 ystar[3]   7.16   6.12 15.5   1.96  3.33  13.9  0.999    1933.    1897.
#>  4 ystar[4]   6.56   5.61 16.8   2.21  2.27  11.9  1.00     1680.    1791.
#>  5 ystar[5]   6.87   6.14  6.12  1.94  3.17  13.0  0.999    1969.    1961.
#>  6 ystar[6]   4.14   2.71 13.8   2.05 -0.411 11.0  1.00     1641.    1829.
#>  7 ystar[7]   5.21   3.74 16.8   1.95  0.746 11.6  1.00     1981.    2096.
#>  8 ystar[8]   5.79   4.87 12.0   1.89  2.24  11.8  1.00     1808.    1924.
#>  9 ystar[9]   7.24   5.21 49.4   2.74  1.56  13.6  1.00     1421.    1758.
#> 10 ystar[10]  8.15   6.42 38.9   2.00  3.48  13.3  1.00     2092.    1963.
#> # ℹ 41 more rows
```
…
