Bayesian Modal Regression Analysis of 2003 United States Crime Data
…
Summary of Bayesian Analysis

One can summarize the Bayesian analysis using the summary
function.

print(summary(TPSC_model), n = 7)
#> # A tibble: 113 × 10
#>   variable        mean  median     sd    mad       q5     q95  rhat ess_bulk
#>   <chr>          <dbl>   <dbl>  <dbl>  <dbl>    <dbl>   <dbl> <dbl>    <dbl>
#> 1 w             0.278   0.280  0.111  0.117   0.0929   0.461   1.00     590.
#> 2 delta         1.86    1.73   0.657  0.529   1.09     3.05    1.00     896.
#> 3 sigma         1.18    1.16   0.254  0.250   0.804    1.64    1.00     657.
#> 4 (Intercept)   1.34    1.53   2.70   2.66   -3.24     5.61    1.01     662.
#> 5 college      -0.203  -0.206  0.0827 0.0807 -0.332   -0.0624  1.01     641.
#> 6 poverty       0.239   0.246  0.136  0.138   0.00497  0.448   1.00     683.
#> 7 metropolitan  0.0630  0.0621 0.0142 0.0136  0.0416   0.0878  1.00     769.
#> # ℹ 106 more rows
#> # ℹ 1 more variable: ess_tail <dbl>
…
The summary of posterior predictive distribution can be assessed
using the following command. Here ystar[1] represents the
posterior prediction of the first observation in the dataset, and so
on.

summary(posterior::subset_draws(TPSC_model, variable = "ystar"))
#> # A tibble: 51 × 10
#>    variable    mean median      sd   mad      q5   q95  rhat ess_bulk ess_tail
#>    <chr>      <dbl>  <dbl>   <dbl> <dbl>   <dbl> <dbl> <dbl>    <dbl>    <dbl>
#>  1 ystar[1]  -18.7    6.21 1174.    2.06  3.04   14.3   1.00    1987.    2004.
#>  2 ystar[2]    3.37   1.28   49.6   2.02 -1.83    8.68  1.00    2010.    2004.
#>  3 ystar[3]   11.2    6.19  107.    2.02  3.22   13.3   1.00    1973.    1850.
#>  4 ystar[4]    6.86   5.65   10.8   2.11  2.21   13.5   1.00    1733.    1795.
#>  5 ystar[5]    7.75   6.23   17.8   1.96  3.27   14.7   1.00    1888.    2055.
#>  6 ystar[6]    4.21   2.71   20.1   2.04 -0.0589 10.9   1.00    1958.    2004.
#>  7 ystar[7]    5.50   3.83   22.3   2.04  0.761  11.8   1.00    1695.    2004.
#>  8 ystar[8]    6.44   4.98    9.50  2.05  2.33   13.9   1.00    1984.    1716.
#>  9 ystar[9]    5.88   5.20    7.89  2.59  1.17   13.6   1.00    1643.    1743.
#> 10 ystar[10]   7.40   6.31   13.5   1.92  3.43   13.3   1.00    1994.    1596.
#> # ℹ 41 more rows
…
